{
    "prepare_queue": {
        "installed": [],
        "uninstalled": []
    },
    "config_munge": {
        "files": {}
    },
    "installed_plugins": {
        "onesignal-cordova-plugin": {
            "PACKAGE_NAME": "com.bzone.mobileapp"
        }
    },
    "dependent_plugins": {}
}